CCTV1 8M1080,http://39.134.176.166/hwltc.tv.cdn.zj.chinamobile.com/PLTV/88888888/224/3221229818/index.m3u8
CCTV2 Max4.5M1080,http://39.134.176.163/hwltc.tv.cdn.zj.chinamobile.com/PLTV/88888888/224/3221230716/01.m3u8?fmt=ts2hls
CCTV3 Max4.5M1080,http://39.134.176.166/hwltc.tv.cdn.zj.chinamobile.com/PLTV/88888888/224/3221230740/index.m3u8
CCTV4 8M1080,http://39.134.176.166/hwltc.tv.cdn.zj.chinamobile.com/PLTV/88888888/224/3221229749/01.m3u8?fmt=ts2hls
CCTV5 8M1080,http://39.134.176.166/hwltc.tv.cdn.zj.chinamobile.com/PLTV/88888888/224/3221228965/01.m3u8?fmt=ts2hls
CCTV5+ 8M1080,http://39.134.176.166/hwltc.tv.cdn.zj.chinamobile.com/PLTV/88888888/224/3221229684/01.m3u8?fmt=ts2hls
CCTV6 Max4.5M1080,http://39.134.176.166/hwltc.tv.cdn.zj.chinamobile.com/PLTV/88888888/224/3221230685/index.m3u8

CCTV7 4M1080 需要修改,http://httplive.slave.bfgd.com.cn:14311/playurl?playtype=live&protocol=http&accesstoken=R5F2408FEU3198804BK78052214IE73560DFP2BF4M340CE68V0Z339CBW1626D4D261E46FEA&playtoken=ABCDEFGH&programid=4200000127
CCTV8 Max4.5M1080,http://39.134.176.166/hwltc.tv.cdn.zj.chinamobile.com/PLTV/88888888/224/3221230737/index.m3u8
CCTV8 4M1080 需要修改,http://httplive.slave.bfgd.com.cn:14311/playurl?playtype=live&protocol=http&accesstoken=R5F2408FEU3198804BK78052214IE73560DFP2BF4M340CE68V0Z339CBW1626D4D261E46FEA&playtoken=ABCDEFGH&programid=4200000066
CCTV9 4M1080 需要修改,http://httplive.slave.bfgd.com.cn:14311/playurl?playtype=live&protocol=http&accesstoken=R5F2408FEU3198804BK78052214IE73560DFP2BF4M340CE68V0Z339CBW1626D4D261E46FEA&playtoken=ABCDEFGH&programid=4200000128
CCTV10 4M1080需要修改,http://httplive.slave.bfgd.com.cn:14311/playurl?playtype=live&protocol=http&accesstoken=R5F2408FEU3198804BK78052214IE73560DFP2BF4M340CE68V0Z339CBW1626D4D261E46FEA&playtoken=ABCDEFGH&programid=4200000130
CCTV11 4M1080 需要修改,http://httplive.slave.bfgd.com.cn:14311/playurl?playtype=live&protocol=http&accesstoken=R5F2408FEU3198804BK78052214IE73560DFP2BF4M340CE68V0Z339CBW1626D4D261E46FEA&playtoken=ABCDEFGH&programid=4200000129

CCTV12 720需要修改,http://39.134.176.160/hwltc.tv.cdn.zj.chinamobile.com/PLTV/88888888/224/3221228312/01.m3u8?fmt=ts2hls

CCTV13 4M1080,http://39.134.176.166/hwltc.tv.cdn.zj.chinamobile.com/PLTV/88888888/224/3221230877/01.m3u8?fmt=ts2hls
CCTV14 Max4.5M1080,http://39.134.176.166/hwltc.tv.cdn.zj.chinamobile.com/PLTV/88888888/224/3221230701/01.m3u8?fmt=ts2hls
CCTV15 Max4.5M1080,http://39.134.176.166/hwltc.tv.cdn.zj.chinamobile.com/PLTV/88888888/224/3221230658/01.m3u8?fmt=ts2hls
CCTV17 8M1080,http://39.134.176.166/hwltc.tv.cdn.zj.chinamobile.com/PLTV/88888888/224/3221229765/index.m3u8
浙江卫视 8M1080,http://39.134.176.166/hwltc.tv.cdn.zj.chinamobile.com/PLTV/88888888/224/3221230035/index.m3u8
东方卫视 Max4.5M1080,http://39.134.176.166/hwltc.tv.cdn.zj.chinamobile.com/PLTV/88888888/224/3221230689/01.m3u8?fmt=ts2hls
北京卫视 8M1080,http://39.134.176.166/hwltc.tv.cdn.zj.chinamobile.com/PLTV/88888888/224/3221228321/01.m3u8?fmt=ts2hls
天津卫视 4M1080,http://39.134.176.166/hwltc.tv.cdn.zj.chinamobile.com/PLTV/88888888/224/3221228818/index.m3u8
安徽卫视 Max4.5M1080,http://39.134.176.166/hwltc.tv.cdn.zj.chinamobile.com/PLTV/88888888/224/3221230707/01.m3u8?fmt=ts2hls
山东卫视 Max4.5M1080,http://39.134.176.166/hwltc.tv.cdn.zj.chinamobile.com/PLTV/88888888/224/3221230652/01.m3u8?fmt=ts2hls
广东卫视 Max4.5M1080,http://39.134.176.166/hwltc.tv.cdn.zj.chinamobile.com/PLTV/88888888/224/3221230661/01.m3u8?fmt=ts2hls
江苏卫视 Max4.5M1080,http://39.134.176.166/hwltc.tv.cdn.zj.chinamobile.com/PLTV/88888888/224/3221230698/01.m3u8?fmt=ts2hls
江西卫视 Max4.5M1080,http://39.134.176.166/hwltc.tv.cdn.zj.chinamobile.com/PLTV/88888888/224/3221230667/01.m3u8?fmt=ts2hls
深圳卫视 Max4.5M1080,http://39.134.176.166/hwltc.tv.cdn.zj.chinamobile.com/PLTV/88888888/224/3221230676/01.m3u8?fmt=ts2hls
湖北卫视 Max4.5M1080,http://39.134.176.166/hwltc.tv.cdn.zj.chinamobile.com/PLTV/88888888/224/3221230670/01.m3u8?fmt=ts2hls
湖南卫视 Max4.5M1080,http://39.134.176.166/hwltc.tv.cdn.zj.chinamobile.com/PLTV/88888888/224/3221230695/01.m3u8?fmt=ts2hls
辽宁卫视 Max4.5M1080,http://39.134.176.166/hwltc.tv.cdn.zj.chinamobile.com/PLTV/88888888/224/3221230692/01.m3u8?fmt=ts2hls
黑龙江卫视 Max4.5M1080,http://39.134.176.163/hwltc.tv.cdn.zj.chinamobile.com/PLTV/88888888/224/3221230710/01.m3u8?fmt=ts2hls
求索动物 8M1080,http://39.134.176.166/hwltc.tv.cdn.zj.chinamobile.com/PLTV/88888888/224/3221228980/01.m3u8?fmt=ts2hls
求索生活 8M1080,http://39.134.176.166/hwltc.tv.cdn.zj.chinamobile.com/PLTV/88888888/224/3221228983/01.m3u8?fmt=ts2hls
求索科学 8M1080,http://39.134.176.166/hwltc.tv.cdn.zj.chinamobile.com/PLTV/88888888/224/3221228975/01.m3u8?fmt=ts2hls
求索纪录 8M1080,http://39.134.176.166/hwltc.tv.cdn.zj.chinamobile.com/PLTV/88888888/224/3221228972/01.m3u8?fmt=ts2hls
Y+频道 8M1080,http://39.134.176.166/hwltc.tv.cdn.zj.chinamobile.com/PLTV/88888888/224/3221229999/01.m3u8?fmt=ts2hls
杭州1 4M1080,http://39.134.176.166/hwltc.tv.cdn.zj.chinamobile.com/PLTV/88888888/224/3221229307/index.m3u8
杭州2 4M1080,http://39.134.176.166/hwltc.tv.cdn.zj.chinamobile.com/PLTV/88888888/224/3221229310/index.m3u8
杭州3 4M1080,http://39.134.176.166/hwltc.tv.cdn.zj.chinamobile.com/PLTV/88888888/224/3221229313/index.m3u8
杭州4 4M1080,http://39.134.176.166/hwltc.tv.cdn.zj.chinamobile.com/PLTV/88888888/224/3221229377/index.m3u8
杭州5 4M1080,http://39.134.176.166/hwltc.tv.cdn.zj.chinamobile.com/PLTV/88888888/224/3221229316/index.m3u8
求索动物 8M1080,http://39.134.176.166/hwltc.tv.cdn.zj.chinamobile.com/PLTV/88888888/224/3221228980/01.m3u8?fmt=ts2hls
求索生活 8M1080,http://39.134.176.166/hwltc.tv.cdn.zj.chinamobile.com/PLTV/88888888/224/3221228983/01.m3u8?fmt=ts2hls
求索科学 8M1080,http://39.134.176.166/hwltc.tv.cdn.zj.chinamobile.com/PLTV/88888888/224/3221228975/01.m3u8?fmt=ts2hls
求索纪录 8M1080,http://39.134.176.166/hwltc.tv.cdn.zj.chinamobile.com/PLTV/88888888/224/3221228972/01.m3u8?fmt=ts2hls
Y+频道 8M1080,http://39.134.176.166/hwltc.tv.cdn.zj.chinamobile.com/PLTV/88888888/224/3221229999/01.m3u8?fmt=ts2hls
iHot爱喜剧 8M1080,http://39.134.176.166/hwltc.tv.cdn.zj.chinamobile.com/PLTV/88888888/224/3221230022/01.m3u8?fmt=ts2hls
iHot爱浪漫 8M1080,http://39.134.176.166/hwltc.tv.cdn.zj.chinamobile.com/PLTV/88888888/224/3221230005/01.m3u8?fmt=ts2hls
iHot爱科幻 8M1080,http://39.134.176.166/hwltc.tv.cdn.zj.chinamobile.com/PLTV/88888888/224/3221230025/01.m3u8?fmt=ts2hls
iHot爱院线 8M1080,http://39.134.176.159/hwltc.tv.cdn.zj.chinamobile.com/PLTV/88888888/224/3221230019/01.m3u8?fmt=ts2hls
iHot爱世界 7.5M1080,http://39.134.176.166/hwltc.tv.cdn.zj.chinamobile.com/PLTV/88888888/224/3221230046/index.m3u8
iHot爱体育 7.5M1080,http://39.134.176.166/hwltc.tv.cdn.zj.chinamobile.com/PLTV/88888888/224/3221230034/index.m3u8
iHot爱体育 7.5M1080,http://39.134.176.166/hwltc.tv.cdn.zj.chinamobile.com/PLTV/88888888/224/3221230103/index.m3u8
iHot爱军武 7.5M1080,http://39.134.176.166/hwltc.tv.cdn.zj.chinamobile.com/PLTV/88888888/224/3221230083/index.m3u8
iHot爱动漫 7.5M1080,http://39.134.176.167/hwltc.tv.cdn.zj.chinamobile.com/PLTV/88888888/224/3221230136/index.m3u8
iHot爱历史 7.5M1080,http://39.134.176.167/hwltc.tv.cdn.zj.chinamobile.com/PLTV/88888888/224/3221230100/index.m3u8
iHot爱幼教 7.5M1080,http://39.134.176.167/hwltc.tv.cdn.zj.chinamobile.com/PLTV/88888888/224/3221230086/index.m3u8
iHot爱科学 7.5M1080,http://39.134.176.166/hwltc.tv.cdn.zj.chinamobile.com/PLTV/88888888/224/3221230106/index.m3u8
iHot爱解密 7.5M1080,http://39.134.176.166/hwltc.tv.cdn.zj.chinamobile.com/PLTV/88888888/224/3221230080/index.m3u8
iHot爱谍战 7.5M1080,http://39.134.176.166/hwltc.tv.cdn.zj.chinamobile.com/PLTV/88888888/224/3221230092/index.m3u8
Hot亚洲影院 720,http://39.134.176.166/hwltc.tv.cdn.zj.chinamobile.com/PLTV/88888888/224/3221228365/01.m3u8?fmt=ts2hls
Hot少儿动漫 720,http://39.134.176.151/hwltc.tv.cdn.zj.chinamobile.com/PLTV/88888888/224/3221228387/01.m3u8?fmt=ts2hls
Hot探索纪录 720,http://39.134.176.151/hwltc.tv.cdn.zj.chinamobile.com/PLTV/88888888/224/3221228366/01.m3u8?fmt=ts2hls
Hot欧美影院 720,http://39.134.176.151/hwltc.tv.cdn.zj.chinamobile.com/PLTV/88888888/224/3221228384/01.m3u8?fmt=ts2hls
Hot漫游世界 720,http://39.134.176.166/hwltc.tv.cdn.zj.chinamobile.com/PLTV/88888888/224/3221228581/01.m3u8?fmt=ts2hls
NewTV金牌综艺 4M1080,http://39.134.176.167/hwltc.tv.cdn.zj.chinamobile.com/PLTV/88888888/224/3221229704/index.m3u8
咪咕视频 4M1080,http://39.134.176.163/hwltc.tv.cdn.zj.chinamobile.com/PLTV/88888888/224/3221230341/index.m3u8
咪咕视频 8M1080,http://39.134.176.166/hwltc.tv.cdn.zj.chinamobile.com/PLTV/88888888/224/3221228953/01.m3u8?fmt=ts2hls
咪咕视频 8M1080,http://39.134.176.166/hwltc.tv.cdn.zj.chinamobile.com/PLTV/88888888/224/3221228954/01.m3u8?fmt=ts2hls
咪咕视频 8M1080,http://39.134.176.166/hwltc.tv.cdn.zj.chinamobile.com/PLTV/88888888/224/3221228956/01.m3u8?fmt=ts2hls
咪咕视频 8M1080,http://39.134.176.166/hwltc.tv.cdn.zj.chinamobile.com/PLTV/88888888/224/3221228957/01.m3u8?fmt=ts2hls
咪咕视频 8M1080,http://39.134.176.166/hwltc.tv.cdn.zj.chinamobile.com/PLTV/88888888/224/3221228959/01.m3u8?fmt=ts2hls
咪咕视频 8M1080,http://39.134.176.166/hwltc.tv.cdn.zj.chinamobile.com/PLTV/88888888/224/3221228960/01.m3u8?fmt=ts2hls
咪咕视频 8M1080,http://39.134.176.166/hwltc.tv.cdn.zj.chinamobile.com/PLTV/88888888/224/3221228962/01.m3u8?fmt=ts2hls
咪咕视频 8M1080,http://39.134.176.166/hwltc.tv.cdn.zj.chinamobile.com/PLTV/88888888/224/3221228963/01.m3u8?fmt=ts2hls
咪咕视频 8M1080,http://39.134.176.166/hwltc.tv.cdn.zj.chinamobile.com/PLTV/88888888/224/3221228966/01.m3u8?fmt=ts2hls
咪咕视频 8M1080,http://39.134.176.166/hwltc.tv.cdn.zj.chinamobile.com/PLTV/88888888/224/3221228968/01.m3u8?fmt=ts2hls
咪咕视频 8M1080,http://39.134.176.166/hwltc.tv.cdn.zj.chinamobile.com/PLTV/88888888/224/3221229702/01.m3u8?fmt=ts2hls
咪咕视频 8M1080,http://39.134.176.166/hwltc.tv.cdn.zj.chinamobile.com/PLTV/88888888/224/3221229758/01.m3u8?fmt=ts2hls
咪咕视频 8M1080,http://39.134.176.166/hwltc.tv.cdn.zj.chinamobile.com/PLTV/88888888/224/3221230350/index.m3u8
咪咕视频 8M1080,http://39.134.176.144/hwltc.tv.cdn.zj.chinamobile.com/PLTV/88888888/224/3221230370/index.m3u8
百视通4K 22M2160,http://39.134.176.166/hwltc.tv.cdn.zj.chinamobile.com/PLTV/88888888/224/3221229311/01.m3u8?fmt=ts2hls
SiTV欢笑剧场 15M2160,http://39.134.176.166/hwltc.tv.cdn.zj.chinamobile.com/PLTV/88888888/224/3221230739/index.m3u8
咪咕体育4K 31M2160HDR,http://39.134.176.167/hwltc.tv.cdn.zj.chinamobile.com/PLTV/88888888/224/3221230373/index.m3u8
5GO 4M1080,http://39.134.176.166/hwltc.tv.cdn.zj.chinamobile.com/PLTV/88888888/224/3221230239/index.m3u8